demo_v_5_6/17_mnisty/cam_Runs/syn_1/simulation/CNN_wave.vcd
$date
	Fri Aug 16 18:53:03 2024
$end
$version
	ModelSim Version 10.6c
$end
$timescale
	1ps
$end
$scope module tb_conv1 $end
$var wire 1 ! conv2_data_out [11] $end
$var wire 1 " conv2_data_out [10] $end
$var wire 1 # conv2_data_out [9] $end
$var wire 1 $ conv2_data_out [8] $end
$var wire 1 % conv2_data_out [7] $end
$var wire 1 & conv2_data_out [6] $end
$var wire 1 ' conv2_data_out [5] $end
$var wire 1 ( conv2_data_out [4] $end
$var wire 1 ) conv2_data_out [3] $end
$var wire 1 * conv2_data_out [2] $end
$var wire 1 + conv2_data_out [1] $end
$var wire 1 , conv2_data_out [0] $end
$upscope $end
$enddefinitions $end
#0
0!
0"
0#
0$
0%
0&
0'
0(
0)
0*
0+
0,
0!
0"
0#
0$
0%
0&
0'
0(
0)
0*
0+
0,
#46565000
1%
1&
1(
1*
1,
#46575000
1$
0%
0&
1'
0(
1)
0,
#46585000
1#
0$
1%
1(
0)
0*
1+
#46595000
1"
0#
1$
0%
1)
1*
#46605000
0"
1#
1%
0)
0*
0+
#46615000
0#
0$
0%
0'
0(
#46715000
1$
1'
1*
1+
#46725000
1#
0$
1&
0'
1)
0+
#46735000
0#
0&
0)
0*
#46915000
1#
1%
1'
1+
1,
#46925000
1*
#46935000
0%
0'
1(
0*
0+
0,
#46945000
1$
1%
1&
1'
0(
1)
1*
1+
#46955000
1"
0#
0$
0%
0&
0'
0+
1,
#46965000
0"
1$
#46975000
0$
0)
0*
0,
#47045000
1'
1(
1)
#47055000
1%
1&
0'
#47065000
0&
0)
1*
1+
1,
#47075000
0%
1)
#47085000
0(
0)
0*
0+
0,
#47135000
1'
1(
1)
1,
#47145000
0'
0)
1*
1+
0,
#47155000
0(
0*
0+
#47205000
1'
1(
1)
1+
#47215000
0'
0(
0)
0+
#47265000
1#
1'
1)
1,
#47275000
1$
1&
1(
0)
1+
0,
#47285000
0$
0&
1*
0+
1,
#47295000
1$
0(
0*
#47305000
1%
1&
0'
1*
0,
#47315000
0#
0&
1'
1(
1)
#47325000
0$
1&
0'
0)
0*
1+
1,
#47335000
0%
0&
0(
0+
0,
#47385000
1&
1)
1+
1,
#47395000
1%
0&
1'
1(
#47405000
1&
0(
0)
1*
0+
#47415000
0&
1(
0*
#47425000
0%
0'
0(
0,
#47495000
1&
1'
1(
1)
1+
1,
#47505000
0&
0(
0)
1*
0+
#47515000
0'
1(
1)
0,
#47525000
0(
0)
0*
#47535000
1'
1+
#47545000
0'
0+
#47615000
1%
1(
1)
1+
1,
#47625000
1$
0(
0)
0,
#47635000
0$
1&
1(
0+
1,
#47645000
1#
0%
0&
0(
1)
1*
1+
0,
#47655000
1$
1%
1(
#47665000
0$
1&
1'
0(
0)
0+
1,
#47675000
0#
1$
0&
1)
0*
1+
0,
#47685000
0%
1(
0)
1*
0+
#47695000
0$
0'
0(
0*
#47735000
1%
1&
1(
1)
#47745000
1$
0%
0(
0)
1*
#47755000
0$
1%
0&
1(
1)
1+
1,
#47765000
0%
0(
0)
0*
0+
0,
#47785000
1(
1)
1*
1,
#47795000
1%
1&
0)
1+
#47805000
1$
0&
1)
0*
0+
#47815000
0$
0%
0(
0)
0,
#47855000
1$
1%
1'
1)
#47865000
0%
1&
1(
0)
1+
#47875000
1%
0&
0+
#47885000
1#
0$
0%
0'
1+
#47895000
0#
1$
1%
1&
1,
#47905000
0$
1*
#47915000
0%
0&
0(
0*
0+
0,
#47975000
1%
1'
1*
1,
#47985000
0%
1&
0'
1(
1)
0,
#47995000
1'
0*
1,
#48005000
1#
1%
0)
1+
0,
#48015000
1$
0(
1*
1,
#48025000
0$
0&
0'
1(
1)
0*
0+
#48035000
0#
1$
0%
1'
0(
0)
#48045000
0$
0'
0,
#48095000
1%
1&
1'
1)
1*
#48105000
1$
0&
0'
1(
0*
1+
1,
#48115000
1&
0)
#48125000
0&
1'
0(
0+
#48135000
1#
0$
0%
0'
1(
1)
1*
#48145000
1$
1%
1&
1'
0(
0)
0*
#48155000
1"
0#
0&
0'
1(
1*
1+
#48165000
0%
1'
0(
0,
#48175000
0"
0$
0'
0*
0+
#48215000
1#
1$
1&
1'
1(
1)
1*
#48225000
1%
0'
#48235000
0%
1'
0(
0)
0*
1,
#48245000
0$
1%
0'
1*
1+
0,
#48255000
0%
1)
1,
#48265000
0&
0)
0+
0,
#48275000
0#
1$
1%
1'
1(
1)
1,
#48285000
0$
0)
0*
0,
#48295000
0%
0'
0(
#48355000
1$
1%
1&
1(
1)
1+
1,
#48365000
1#
1*
0+
0,
#48375000
0#
1'
0(
0*
1+
1,
#48385000
0$
0%
0&
0'
0)
0+
0,
#48475000
1%
1'
1)
1+
1,
#48485000
1$
1&
0'
1(
#48495000
1#
0$
0%
1'
0(
1*
0+
#48505000
0'
1+
0,
#48515000
0#
1$
1'
1(
0*
0+
1,
#48525000
0$
0'
1+
0,
#48535000
0&
0(
0)
0+
#48575000
1#
1$
1(
1*
1+
#48585000
1"
0#
0$
1%
0(
1)
0*
#48595000
0"
1#
1$
1&
0)
0+
#48605000
0$
0&
#48615000
0#
1$
1&
1'
1(
1)
1*
1,
#48625000
1#
0$
0&
0)
0*
1+
0,
#48635000
1$
0%
1&
0'
0+
#48645000
0$
0(
1)
1*
1+
#48655000
0#
0&
0)
0*
0+
#48705000
1&
1'
1(
1)
1*
1,
#48715000
1#
1%
0&
0,
#48725000
0#
1$
0%
1&
0'
0*
1+
1,
#48735000
0$
0&
0(
0)
0+
0,
#48935000
1$
1&
1(
#48945000
1#
0&
1)
1+
1,
#48955000
0$
1%
0)
#48965000
0#
1$
0(
1)
1*
0+
0,
#48975000
0%
1&
1'
0)
0*
1+
#48985000
1#
0$
0&
1)
1,
#48995000
0'
1(
0)
1*
0+
#49005000
0#
1$
1'
#49015000
0$
0'
0(
0*
0,
#49065000
1$
1'
1*
1+
#49075000
1&
0'
1(
1)
#49085000
0$
0&
0(
0)
0*
0+
#49295000
1(
1*
1,
#49305000
1$
1'
0(
0*
0,
#49315000
0$
1%
1&
1(
1*
1,
#49325000
0%
0&
1)
0*
#49335000
0'
0(
#49345000
0)
0,
